803802 871921
641496 1598
11977 567784
186689 973494
570126 238304
439157 231394
677527 894795
425274 412476
104903 886388
674808 971237
584240 436394
141957 860744
319127 428083
604861 345148
268105 324232
980487 279288
458343 311191
502907 745019
388941 657826
523128 440302
486019 735582
827231 556790
15903 709087
162576 834111
461296 804803
108827 779459
115761 52275
211098 738596
20102 613427
162633 22786
142849 451797
555894 481913
541797 363048
178285 47636
939810 292071
792158 507601
541012 533860
935222 297924
511835 209007
320664 770616
760792 870332
118493 543025
619444 786407
367618 899225
862339 466116
118358 566067
48293 143034
639055 921844
523629 731402
811243 442158
599983 465049
168460 932637
888553 530533
524348 960315
389194 228716
997761 72972
424848 507937
387096 820083
90818 317047
446400 41399
767038 532556
234164 95034
694800 249044
167597 284614
997245 975595
690324 283898
41290 568020
591439 49834
991611 654445
813189 153410
861825 860577
532577 822355
364953 508933
47896 917333
443876 169418
873780 161520
938680 878020
670974 547078
24731 258199
612484 369455
899262 894908
686884 461991
338033 136207
467376 522188
290605 710062
312830 557543
290287 459875
971642 825377
922007 764912
308676 671973
635793 938174
956612 549236
28681 942066
741486 263989
56027 915534
615895 4688
914011 272691
744467 702340
998112 528303
93738 70444
629846 53445
710360 839128
754543 435415
395184 500117
694001 779111
248453 152707
755429 789461
532200 916329
971727 637507
436545 918254
678382 252299
827917 541271
440613 496909
768862 330974
427341 574964
337374 278080
705006 198221
341746 567871
178408 511997
280555 604701
113782 736981
69462 938722
272947 131983
704182 36413
797552 127941
202229 87926
124490 666138
743504 453763
896029 138370
556818 575394
177004 384989
634548 931268
293002 547924
407791 531869
943145 433931
392409 90131
558074 944723
143091 21706
573172 489625
133148 522354
104950 176774
280150 349462
966110 391365
937726 821777
357932 724395
861865 585579
875607 638552
57582 747682
472977 844267
425535 565231
750620 729084
88835 149589
393711 129294
577389 911910
35121 377198
80762 899627
152957 693371
203003 259733
943365 938397
754490 764122
468327 464627
736389 714173
256449 672678
521447 984760
679305 145822
433489 223551
343141 565439
257314 873731
541225 652901
907814 314790
167938 248143
951363 512803
453541 306168
175093 578694
147243 889366
740554 629877
945059 626815
845107 814040
928377 263137
442460 798200
932359 870328
786782 319572
249300 449369
296524 703874
389110 525924
889926 517346
842394 362255
491456 340254
248749 474125
297135 629239
69901 704863
913860 452477
588648 681002
292913 996734
483067 626080
551444 304550
459174 849084
138045 642292
422236 875018
168750 44246
345877 282773
383782 834517
583191 966909
245395 985911
588769 232850
399958 324301
244268 284406
773317 571520
110228 20057
512825 416800
742330 595012
773711 957150
312694 980360
135169 673852
301280 471602
456421 453362
601936 841871
384494 526309
737983 864303
837719 925639
17726 104010
699566 253388
939888 554289
488643 849140
89176 274979
585302 735426
684201 560932
563302 922827
428126 853489
910854 236405
160327 423426
521427 956648
57569 335761
809954 11546
515456 252956
853052 453333
790637 922124
788647 41742
732043 604910
823306 677273
292986 741999
866645 310842
69795 156305
80701 715305
769339 629689
99977 992838
990841 274075
192376 181727
272468 586930
267740 277599
360421 269849
866513 518976
747638 10974
278108 61143
704707 225381
415202 764749
946104 43539
412992 145650
618061 527099
557774 10160
334245 312584
598614 16311
312170 908419
701536 157935
148745 328261
958931 367425
882989 547719
830149 159384
14616 882721
752929 268816
193691 756430
741793 928363
259780 373208
429640 184986
109700 491725
227722 105239
315130 43964
414922 417003
573699 637611
878816 128318
273092 226702
836116 805456
455926 411926
382258 266150
699730 501005
784158 711438
808976 95593
544721 688650
921486 676429
737167 777941
140106 822268
