452047 997272 525
184009 363513 443
263206 354223 441
868010 958124 507
826147 49355 509
358610 593864 470
69004 882981 525
563340 662614 509
64390 632011 509
391152 858475 525
340758 612128 470
57595 341491 443
55208 212116 383
200329 757295 509
694930 157355 509
360610 89608 443
565676 390425 470
465127 368299 449
452800 668306 509
850001 554206 525
951220 932687 507
129763 982726 525
265807 59281 443
923183 566923 525
320094 937205 525
548581 957323 525
626401 677568 442
5991 109327 354
809889 261649 509
736641 331499 509
851847 610039 525
886660 541157 525
852731 554681 525
221928 384737 443
215557 273988 443
372930 494127 449
952208 814000 525
111455 380284 443
227403 818272 509
4818 423404 449
57548 424634 449
709874 909824 525
110217 749295 509
335033 431102 449
139355 336516 443
32763 2628 308
855793 564010 525
389511 179741 443
725881 226374 509
819953 995981 525
349493 698479 509
84305 87942 333
512467 910452 525
848175 442141 525
463315 74796 449
542656 143718 470
940351 34909 525
135980 383229 443
452126 212827 449
781261 271236 509
69811 477089 449
890394 114659 525
420588 71913 449
520332 736124 509
700859 537386 509
986991 231983 525
234212 742216 509
46606 983615 525
297499 324845 384
263370 100719 443
559437 67789 470
209101 129034 383
246627 691744 509
609360 17622 470
239177 97052 443
949040 191440 525
160580 193570 365
255075 929876 525
577990 733243 509
936940 294335 525
436662 18784 449
76369 11066 340
16664 554990 470
9399 956522 525
876962 300488 525
378554 998729 525
685452 682165 380
509675 767215 509
432445 10916 449
825167 162803 509
250 189544 383
211684 320150 443
966935 352021 525
426671 237504 449
713573 823976 468
980751 973142 383
664939 894298 525
253779 175621 443
36142 747206 509
924873 145753 525
913222 877182 476
545562 659283 509
791070 84896 509
899888 842465 445
325762 416275 449
59396 982387 525
95671 826782 509
545351 65248 470
877143 651568 525
990426 755604 525
174593 496394 449
780453 12512 509
897960 100892 525
364467 398761 436
440081 763617 509
62593 221829 386
945561 49086 525
35747 679309 509
745349 549901 509
626307 360245 470
558141 892410 525
43208 819921 509
999165 872160 507
880651 148796 525
41207 955122 525
222482 443466 449
141932 382056 443
105799 350870 443
870105 776161 525
135713 633753 509
972612 572355 525
753866 640979 504
354490 768521 509
362688 710729 509
731039 394239 509
869221 966005 507
487435 307871 449
251477 968940 525
684319 878993 525
509500 331072 449
341863 3922 443
714179 647246 504
710592 542629 509
887960 653466 525
735187 141546 509
773100 753931 468
430256 823232 509
566318 7894 470
172525 24383 383
160374 137314 383
86145 750950 509
639928 619500 509
972185 533998 525
912052 7809 525
893303 973878 507
864935 774564 525
361001 280382 441
339567 782297 509
386318 178525 443
609447 219363 470
296477 101048 443
405507 227355 443
26704 831612 509
857287 488452 525
455896 36658 449
836710 586010 509
580807 648423 509
298329 358939 441
343229 837887 525
451005 167772 449
367418 914306 525
680246 442951 509
484914 291090 449
666120 965296 525
104029 781028 509
959232 305964 525
797220 344127 509
651528 928595 525
514559 535800 439
773212 25753 509
753616 785440 468
439176 898459 525
602715 561101 434
504202 173381 449
275730 397996 441
121661 22066 354
844490 256455 525
407822 146285 443
339947 180865 443
824526 784577 468
541862 216242 470
485969 536705 470
24929 454919 449
558752 40871 470
305197 486201 449
401262 853344 525
13234 714110 509
148468 435687 449
754454 54824 509
372033 188677 443
436294 939221 525
683403 164943 509
71454 634813 509
138771 864972 525
926879 549345 525
755232 53306 509
583952 693882 509
787711 398754 509
526404 772127 509
345345 944131 525
879410 961213 507
395211 541947 470
385265 539037 470
390802 241809 441
379105 976226 525
581831 603146 434
590194 689708 509
382767 229734 443
613911 699818 509
409844 271816 441
679265 428551 509
384716 967690 525
313293 826167 509
770168 29973 509
710134 24478 509
219426 476628 449
29466 488483 449
369074 556303 470
121937 122674 336
17193 501585 449
418041 418237 281
836424 804770 450
196563 176169 365
866012 658823 525
494557 320373 449
655333 522962 509
356604 285586 441
607906 289945 470
747665 770901 468
513143 74773 470
214926 779249 509
546908 688028 509
