8853 438296
201942 759976
695298 509695
729625 333774
685935 913024
940542 245064
887585 5224
120071 803607
51815 804293
92573 290895
483522 853630
61361 577376
516966 694848
122664 846441
402320 285348
584694 324202
719935 651062
504385 109900
47998 848918
4407 698571
163976 295566
57159 468515
416792 271189
770756 174284
338281 706996
448500 613695
575696 469505
22506 688144
839616 598857
123145 638557
497527 141491
874557 190520
181406 852483
371056 167702
79556 545475
909610 593096
886450 292861
448406 982537
428679 384051
430721 144927
252667 27223
693063 480077
587845 112566
978191 258991
144728 61360
75297 785152
896848 362887
272160 55565
60304 324706
231416 37162
155878 196675
76729 637131
627005 518737
370292 822373
762628 907140
265602 702263
894331 793673
593515 890703
702781 688097
849456 966833
160857 526198
924928 400622
121709 51096
693331 117588
674122 717107
862673 214069
748026 277286
673649 784822
162085 859987
677910 606978
975969 941757
807262 69098
427711 916804
407489 735241
272602 724232
844349 884354
468043 570437
999601 261594
289112 366066
390175 372471
576390 554621
891615 409886
933235 904607
175110 533896
111992 765558
684736 924650
109115 822078
380303 22904
372445 957246
672278 705343
758141 216890
549466 704287
91311 506637
754115 619718
246582 486199
617276 616693
560262 265718
311188 915242
786643 430437
721304 866133
545160 747584
516449 648155
74351 372637
374715 363476
908967 704364
887294 627892
844090 179931
173021 898426
965272 992327
658830 953251
29919 559045
798188 30842
162266 733306
12805 279054
46377 936154
57636 398553
267520 55551
519534 114012
692838 558465
610683 465302
362722 925386
916844 330364
780529 17461
74494 410294
188638 668080
263509 233106
154870 277973
780973 549057
680368 855615
423218 866027
208936 478581
268148 748054
528289 402860
503644 616371
476413 521631
374140 161892
632786 621515
902625 842274
806429 434644
492869 890091
631923 928908
620263 200044
180029 611098
649400 338424
196559 76270
36475 872103
767842 979003
777690 343603
265238 17337
59223 917033
997101 913077
418639 603048
395309 559069
52531 554209
259527 659382
507514 271356
203512 115908
523072 536654
840406 897463
127363 795061
883110 710248
842820 16612
945563 175319
75 989220
274481 366811
953038 199218
262266 395555
319586 982237
248679 393281
424660 151887
507715 923890
972372 808468
816506 193250
568210 257566
526572 574939
732866 320214
190955 717225
105511 168352
144509 164315
709854 147620
183202 161916
888941 203186
733268 939157
356966 992460
711818 163995
723206 148806
696324 746551
756414 184570
769048 587832
191972 252644
561397 26452
811536 815016
384638 465851
494375 725656
820187 947387
430392 397078
107952 715355
536772 629766
973990 979482
735286 719664
805569 816197
442922 323668
617109 859590
536803 926225
179047 696200
577474 190824
515768 933969
851041 17929
516532 873667
916628 366451
766682 613586
497206 242528
705128 968092
173484 884704
116539 288620
