461807 39413 449
202621 824175 509
40503 165297 383
733868 3975 509
573206 625728 447
856237 91101 525
811362 202692 509
70388 424324 449
420530 529157 470
805699 48212 509
403703 952842 525
779956 655326 504
536768 604494 452
331684 622297 470
507521 835916 509
313900 795138 509
146690 783728 509
232929 80591 443
625637 404762 470
952925 113114 525
524758 351853 470
317287 883632 525
634987 381910 509
777693 12795 509
372949 60803 443
305642 788008 509
840229 312809 525
325723 957485 525
534537 941774 525
913152 355667 525
769047 600332 509
881381 870316 432
140083 220890 386
686698 235172 509
603849 32084 470
105577 83317 341
268995 886023 525
36840 565859 470
369255 147990 443
89670 20627 351
621134 340666 470
515764 896926 525
44954 879621 525
351252 150919 443
271254 60437 443
374802 880650 525
757138 403289 509
888665 503540 525
934722 20062 525
357358 768460 509
322442 35081 443
65174 356742 443
792544 984199 525
104262 977384 525
640789 210905 509
812179 292893 509
523153 184577 470
210279 861085 525
719416 550254 509
719608 632182 504
857716 217417 525
514227 101806 470
622438 931565 525
894140 688869 525
349576 322023 441
629169 589544 509
901505 464571 525
376782 55861 443
719778 154874 509
508040 160614 449
897209 656787 525
800029 172286 509
260271 91952 443
512301 2760 470
496507 73869 449
163155 565402 470
756476 203028 509
745471 258178 509
227241 938676 525
848357 787729 525
389789 124388 443
778558 548202 509
54855 432471 449
912906 699290 525
672744 997498 525
486371 906023 525
108257 671346 509
250015 95992 443
36499 960776 525
412811 479935 444
638469 850087 525
304094 960266 525
931358 143419 525
398578 638563 509
508154 620409 470
585339 643086 509
604117 612649 403
403567 36393 443
822590 291449 509
375964 547057 470
269826 204071 443
895587 200290 525
852209 816375 525
601633 371496 470
923609 463846 525
610311 923882 525
35217 487511 449
563891 429109 470
149401 810776 509
879446 207714 525
913501 819045 525
227543 280935 443
598388 24733 470
387321 81233 443
432263 641337 509
938621 122878 525
430065 677452 509
307413 870345 525
135553 123864 344
163283 898475 525
911636 737836 525
424978 117496 449
516068 654155 509
857301 375555 525
527217 871552 525
819211 211158 509
852370 999036 507
709296 498478 509
391109 451653 449
674918 258000 509
41366 566308 470
483230 543070 470
923526 576694 525
93644 488790 449
269820 673187 509
410198 949456 525
230713 615768 470
919173 61400 525
500363 909369 525
908119 242099 525
466573 544320 470
998789 214232 525
829642 253186 509
367355 817678 509
289175 107061 443
125751 721112 509
303253 296668 371
633433 158799 509
223549 725144 509
298771 866014 525
557236 920890 525
523748 130858 470
61587 936330 525
525302 199539 470
631930 430983 509
88879 967143 525
916860 912689 370
133143 403311 443
624291 64981 470
683644 513818 509
412657 627224 509
752752 760292 424
675996 459225 509
397906 284178 441
534757 910538 525
539991 390560 470
374883 696924 509
217607 521695 470
704577 967406 525
268378 111080 443
428853 628874 509
596518 651981 509
324763 353346 441
763951 588694 509
722429 478087 509
414643 503787 444
559805 208151 470
27846 752636 509
623278 62647 470
733029 897874 525
352758 261923 441
632534 395078 509
792386 543209 509
764812 963744 525
219928 290464 443
535316 532466 377
780288 441675 509
95755 685416 509
527804 494801 470
2328 604704 470
219080 94094 386
661030 895983 525
795514 319419 509
464224 367957 449
768812 801340 468
217312 779248 509
247638 860331 525
564999 19312 470
318482 227618 443
761737 395392 509
995124 167025 525
871664 393435 525
957122 743963 525
681066 44063 509
212904 571962 470
969776 750103 525
84225 837011 509
487578 298190 449
465436 366806 449
294324 128565 443
961233 690200 525
521073 441653 470
357045 634247 509
643729 329037 509
908445 688887 525
990725 789146 525
37289 12468 324
415305 847089 525
485348 948135 525
400346 54779 443
48476 87475 351
954136 535920 525
5711 103741 351
920804 25031 525
361111 592135 470
155343 73513 375
995009 128685 525
827651 592198 509
781488 912500 525
119377 729736 509
75364 148858 375
508169 237620 449
781718 824752 468
772916 314866 509
923454 707183 525
589961 61364 470
701211 640136 442
980644 898928 507
404072 817317 509
22651 301295 443
885287 50980 525
461395 913667 525
43842 871602 525
769213 337819 509
805809 883942 525
72213 127406 354
219557 580736 470
778087 996551 525
366534 807045 509
589087 70150 470
