111743 769577
859527 632870
593281 446932
90480 73188
883166 611499
942023 797217
145091 683031
506913 54103
893098 882963
377604 772869
496982 334339
805875 487802
494302 534556
866819 429680
788629 46308
666278 178758
697592 756997
716437 209070
570168 111711
132634 738379
351441 765313
661994 488367
866955 308393
996415 543387
484957 618643
68092 276838
674549 480444
398963 509404
129278 199946
205103 271558
60941 513307
964929 890987
266595 251724
260973 662451
665263 253384
98620 299450
18739 117534
750030 238199
156356 385798
598749 708073
3629 398193
324993 439591
321271 901208
92817 979312
198805 184874
200901 906448
96301 668724
238680 605365
225861 974620
960063 639244
580767 737188
492354 59757
151572 93705
989409 659042
790312 439025
858683 635031
982271 284822
542855 457913
413104 913025
198200 633441
659174 271598
563582 812967
101728 367193
754828 102372
733821 591577
174939 313089
884898 530594
669798 895790
34266 195258
355885 453475
81865 929518
953265 350094
367406 308949
230539 603783
479456 873748
664982 499558
705343 63369
736990 474144
736744 359787
330007 215205
488183 533889
958665 811681
78943 361620
630109 969933
953084 938108
767996 601008
827665 885301
701263 779088
776265 900706
93727 135580
601420 231452
955619 339530
44311 955411
832557 992687
866068 640651
613768 641018
641890 187585
165902 968736
995105 425855
560678 638646
96853 37022
864948 379975
814528 287166
320159 458894
764440 605423
943420 160712
751671 277043
951153 511021
395502 860587
312230 75222
729036 264652
757483 128750
148393 947523
762582 823045
657883 864435
199888 737104
611260 267260
172345 348243
548199 395692
783436 545997
364391 513438
678631 205275
369378 805618
348341 572382
549339 879472
975439 50807
754721 373634
300800 974686
101081 817397
163430 813715
975027 641303
592623 51589
498837 955478
856121 78083
699538 909390
574439 477989
601677 102397
513158 150085
833454 664799
657121 523235
720020 796714
69188 53641
696338 397702
725699 150200
398061 328128
396354 964938
299729 166344
454824 558190
278857 755292
392073 285707
506235 556871
713527 145565
924035 35887
645528 961074
376641 547334
601796 283494
655520 533452
487393 347879
343045 235241
911537 421348
806139 143153
536050 289615
546870 484705
883218 2865
432816 105169
122156 970526
215716 158518
251673 877985
595011 48332
51850 409608
127709 586305
793345 543666
970148 635407
604291 644153
38332 12146
584683 90106
830115 492455
961052 694949
467669 5059
937835 106092
359014 654272
513927 63557
180565 15632
671311 596335
708599 243340
358304 975380
904641 250685
441550 198940
337591 999167
909799 95026
263596 589755
921817 196160
81769 689320
390001 446382
74074 124316
687328 31169
96827 673537
778059 864845
848416 558562
458183 380913
908198 900249
740022 64716
652542 736975
391045 778988
572503 941667
788699 434421
756965 903772
426339 738672
316003 960854
222812 325297
888300 81962
269374 461612
554380 763119
364167 888620
492654 886122
105850 646641
205093 356251
330919 80219
485976 126674
651285 622003
427978 832053
790074 521029
953789 235386
637906 710902
908975 345207
541957 705643
489707 855986
934846 381677
426198 942981
710867 530820
676340 436839
228307 271149
114466 493588
771406 551016
492779 223058
831480 989297
146222 284580
791267 800235
155011 337572
960364 378084
593164 964261
747127 605668
250168 647573
6141 566424
