265383 423968 449
381774 207547 443
847062 32446 525
587479 842118 525
123776 352918 443
877613 591626 525
132629 20318 354
390613 810504 509
793443 569521 509
722336 340616 509
665643 733943 504
149411 73904 375
239211 401791 441
274041 610695 470
342724 918277 525
865593 866903 388
836999 790469 468
57993 165555 383
218441 990220 525
124599 935689 525
538713 455063 470
288189 119091 443
48368 318999 443
877065 733874 525
561926 114039 470
316583 933316 525
543680 42061 470
710863 188196 509
352761 111426 443
587094 608358 403
9626 663644 509
491287 562008 470
726365 336121 509
500054 694837 509
33636 766017 509
174580 819097 509
743868 686141 504
609903 410235 470
682098 812455 504
326384 253221 407
152270 695721 509
903524 988563 507
552616 980837 525
887075 797391 525
146117 762083 509
682653 455954 509
887528 484051 525
139286 142864 375
547677 645584 509
131570 79379 354
165430 202936 365
389126 310613 441
709241 797526 468
907639 940894 507
178400 125972 383
144237 418654 449
876918 47531 525
175292 992090 525
9038 526211 470
199326 878434 525
286709 932407 525
56652 248081 443
544173 804799 509
644937 811265 504
43070 288227 443
425827 607668 470
658028 48262 509
881123 36801 525
629058 55049 509
792731 175975 509
858983 91763 525
367571 791480 509
793293 451011 509
410901 77217 449
131847 380080 443
919293 406517 525
442802 757332 509
916646 849135 476
206832 931433 525
855622 619869 525
352534 575523 470
922063 786673 525
900610 189214 525
140395 132492 344
877281 610898 525
716156 291064 509
250311 460014 449
283617 953971 525
898463 282302 525
845006 390734 525
748036 449943 509
450817 502562 444
759605 13766 509
9898 291281 443
9763 149348 375
645735 862523 525
529716 430845 470
321689 763190 509
553940 586408 434
884267 286927 525
114173 72848 354
103423 489836 449
643087 854768 525
153959 490439 449
74446 363802 443
974406 175123 525
636857 538082 509
766164 42967 509
227768 757407 509
513698 281660 470
748549 397451 509
377983 724279 509
824754 970917 525
30717 691864 509
644626 787548 504
71267 582944 470
329734 528468 470
513053 568275 452
25788 882931 525
317336 115347 443
852230 463642 525
522994 338203 470
887735 4809 525
563005 650231 509
643374 926715 525
883018 802990 525
441386 482942 444
661908 314391 509
911299 563755 525
846007 618870 525
438412 733665 509
452561 900045 525
576702 513816 452
942122 235834 525
301452 757984 509
845155 533138 525
626752 358658 509
272444 157293 443
225392 865189 525
945639 580026 525
217615 194413 386
84369 952857 525
397902 125841 443
355340 845771 525
69232 524705 470
151524 951127 525
649221 171028 509
334661 869161 525
303177 250758 407
604670 616926 447
936291 211236 525
743410 733204 424
520576 842540 525
599131 130202 470
858984 796817 525
665302 926161 525
801441 199519 509
269005 783667 509
531879 864192 525
614670 883077 525
899297 466453 525
156960 344115 443
451170 642134 509
534946 303578 470
816174 288956 509
5309 159216 383
455813 131321 449
593610 63521 470
720527 155147 509
982256 200094 525
971354 990785 427
2293 638429 509
451438 613173 470
663464 655717 429
566161 315917 470
268847 844085 525
819425 131901 509
271322 608722 470
39208 627769 509
964183 969252 365
348025 567897 470
156163 232632 443
216761 526380 470
746619 188500 509
704401 102985 509
575223 385178 470
556134 566781 421
144048 277864 443
320216 913328 525
917029 155658 525
666227 651503 442
507951 717158 509
768436 996260 525
107896 347000 443
783765 356326 509
803227 977663 525
576044 736421 509
385849 515851 470
594091 739234 509
342539 648009 509
275732 213283 443
807816 503563 509
340776 277330 389
657643 433062 509
689406 146566 509
349901 780969 509
419738 471753 444
269376 597476 470
325481 941099 525
568517 58874 470
