265383 423968
381774 207547
847062 32446
587479 842118
123776 352918
877613 591626
132629 20318
390613 810504
793443 569521
722336 340616
665643 733943
149411 73904
239211 401791
274041 610695
342724 918277
865593 866903
836999 790469
57993 165555
218441 990220
124599 935689
538713 455063
288189 119091
48368 318999
877065 733874
561926 114039
316583 933316
543680 42061
710863 188196
352761 111426
587094 608358
9626 663644
491287 562008
726365 336121
500054 694837
33636 766017
174580 819097
743868 686141
609903 410235
682098 812455
326384 253221
152270 695721
903524 988563
552616 980837
887075 797391
146117 762083
682653 455954
887528 484051
139286 142864
547677 645584
131570 79379
165430 202936
389126 310613
709241 797526
907639 940894
178400 125972
144237 418654
876918 47531
175292 992090
9038 526211
199326 878434
286709 932407
56652 248081
544173 804799
644937 811265
43070 288227
425827 607668
658028 48262
881123 36801
629058 55049
792731 175975
858983 91763
367571 791480
793293 451011
410901 77217
131847 380080
919293 406517
442802 757332
916646 849135
206832 931433
855622 619869
352534 575523
922063 786673
900610 189214
140395 132492
877281 610898
716156 291064
250311 460014
283617 953971
898463 282302
845006 390734
748036 449943
450817 502562
759605 13766
9898 291281
9763 149348
645735 862523
529716 430845
321689 763190
553940 586408
884267 286927
114173 72848
103423 489836
643087 854768
153959 490439
74446 363802
974406 175123
636857 538082
766164 42967
227768 757407
513698 281660
748549 397451
377983 724279
824754 970917
30717 691864
644626 787548
71267 582944
329734 528468
513053 568275
25788 882931
317336 115347
852230 463642
522994 338203
887735 4809
563005 650231
643374 926715
883018 802990
441386 482942
661908 314391
911299 563755
846007 618870
438412 733665
452561 900045
576702 513816
942122 235834
301452 757984
845155 533138
626752 358658
272444 157293
225392 865189
945639 580026
217615 194413
84369 952857
397902 125841
355340 845771
69232 524705
151524 951127
649221 171028
334661 869161
303177 250758
604670 616926
936291 211236
743410 733204
520576 842540
599131 130202
858984 796817
665302 926161
801441 199519
269005 783667
531879 864192
614670 883077
899297 466453
156960 344115
451170 642134
534946 303578
816174 288956
5309 159216
455813 131321
593610 63521
720527 155147
982256 200094
971354 990785
2293 638429
451438 613173
663464 655717
566161 315917
268847 844085
819425 131901
271322 608722
39208 627769
964183 969252
348025 567897
156163 232632
216761 526380
746619 188500
704401 102985
575223 385178
556134 566781
144048 277864
320216 913328
917029 155658
666227 651503
507951 717158
768436 996260
107896 347000
783765 356326
803227 977663
576044 736421
385849 515851
594091 739234
342539 648009
275732 213283
807816 503563
340776 277330
657643 433062
689406 146566
349901 780969
419738 471753
269376 597476
325481 941099
568517 58874
