48871 545260 470
402824 700299 509
374400 946711 525
300784 389223 441
159311 152304 383
26969 147317 375
554341 972151 525
765946 620433 509
45469 748328 509
710893 277932 509
808663 371905 509
281483 389827 441
901217 690758 525
875565 719302 525
902599 281727 525
414376 556957 470
664924 587460 509
909799 485667 525
132986 607277 470
908028 995572 507
483624 823535 509
48346 188223 383
496383 259125 449
850108 213273 525
326663 916680 525
783485 720783 468
384777 555073 470
452340 613746 470
529605 600895 452
745876 337635 509
661498 192988 509
185950 528914 470
417056 460510 418
136577 164931 383
998323 364052 525
836473 120002 509
729447 218278 509
9590 532993 470
523470 92066 470
873041 827850 525
548968 672833 509
649795 875626 525
600175 27981 470
121705 732088 509
470003 150933 449
589439 694105 509
585455 279201 470
978332 948273 458
775701 278070 509
635553 497539 509
12366 389558 443
438987 412467 418
289317 124240 443
489893 879542 525
178285 242721 443
501887 285113 449
286169 433822 449
166680 594726 470
143299 98996 375
744880 802242 468
52560 410283 449
511192 346646 449
121100 743398 509
33206 386865 443
658486 28235 509
476609 14666 449
825576 812646 450
649693 893752 525
402435 257632 441
485216 142641 449
548025 487634 470
282895 758915 509
685599 969989 525
510375 97966 449
820566 432397 509
559400 193008 470
842311 318458 525
385304 915064 525
481922 37485 449
776595 295995 509
985186 426104 525
929085 639218 525
964969 464695 525
822415 639958 504
750957 742160 393
88137 405281 443
149365 653183 509
70786 984172 525
110924 308818 443
105523 256638 443
588218 198149 470
702681 719610 504
424942 838046 525
583951 142154 470
15831 140195 354
248870 40182 443
25115 469128 449
981919 225883 525
217910 973023 525
728293 982863 525
933015 465710 525
817284 125236 509
558122 524813 452
507398 961970 525
148235 906923 525
757271 324174 509
744790 693388 504
150050 524133 470
219646 749413 509
769389 638970 504
439961 962493 525
170126 684375 509
71111 227243 386
633839 192693 509
337710 449445 449
803239 675712 504
817957 596934 509
773717 92120 509
122982 195269 383
480122 822601 509
184182 219643 386
359066 430771 449
621757 942168 525
721892 353944 509
423069 27675 449
59448 555489 470
825325 418500 509
837472 646389 504
80821 225173 386
29224 261618 443
191328 83976 383
707652 279549 509
156580 470469 449
351339 940780 525
576991 386318 470
890301 982036 507
289138 74898 443
125295 842040 525
56657 868363 525
580562 764830 509
429467 124961 449
631141 825286 504
192522 500256 449
738692 316372 509
385400 499626 449
255584 848184 525
208015 928084 525
196440 916421 525
468895 319579 449
395412 469639 449
934591 477906 525
338955 611236 470
608250 355204 470
734885 319847 509
480472 429528 444
471648 587653 470
891393 749381 525
404844 823155 509
317418 747523 509
409840 12458 443
215703 563800 470
128315 873172 525
885158 389179 525
381340 899819 525
523043 103307 470
744325 445948 509
502451 382628 449
862080 756734 525
220142 958243 525
505179 439487 444
709169 666027 504
370231 732007 509
169753 72255 383
211402 358064 443
616598 6956 470
626313 270541 470
562262 664333 509
269506 268654 345
411214 58102 449
436257 232232 449
489465 30283 449
319314 528154 470
192558 930930 525
81239 143670 375
637568 132685 509
84735 821482 509
274098 85583 443
718072 907592 525
114272 965762 525
773808 606792 509
746154 814109 468
923496 994400 507
939158 296128 525
970865 915604 507
214881 752372 509
558656 871922 525
386296 645273 509
94241 788861 509
641071 214155 509
430449 283910 449
861393 159533 525
822336 902988 525
771269 606872 509
324775 242114 407
933267 60702 525
902499 568608 525
410822 182293 449
885626 968335 507
631510 795540 504
405592 510056 449
915158 56745 525
664961 840006 525
606486 518116 452
846602 673594 525
889744 989500 507
454650 810175 509
164986 755389 509
98730 17083 351
114134 678366 509
670109 781212 504
383282 764970 509
764107 577397 509
885724 372022 525
2459 16378 276
261616 703723 509
930475 867399 476
229176 872481 525
948062 458940 525
978798 801725 525
64858 139641 354
438738 259699 449
944469 404979 525
537646 951365 525
81917 424709 449
425977 411599 418
570740 104916 470
611750 890924 525
499194 146462 449
654570 133906 509
926354 696131 525
234787 528643 470
576724 665019 509
381634 827146 509
156267 10504 383
598330 891905 525
