508247 82883
684987 19258
435474 425997
799762 814999
609504 769662
869800 275594
196275 104198
788683 716140
712199 918365
743661 867298
857013 340273
970302 910768
137048 762943
360832 895341
665540 443952
682975 999675
728386 528162
868668 424621
790016 225153
547095 362210
126029 38489
725237 538134
433461 1659
239077 332163
655594 448421
14774 718758
939839 198983
324662 906049
69013 277014
282160 512810
357375 700114
840810 580910
793287 465084
749581 934242
412396 658004
459290 377028
917761 966229
345828 172233
870309 608053
212030 649790
108841 73407
783731 22818
251748 334004
143580 601685
826600 478350
192536 166417
875912 449699
160399 240957
800991 833470
403357 475332
787470 367474
344278 620331
640450 781088
793891 682798
35202 885266
857333 783100
818861 543719
345100 800463
843459 691102
813314 528465
481301 598394
434417 811711
932734 527075
214668 907000
660267 748339
271575 200964
211839 456594
271670 285631
856074 586633
722601 916161
999366 487210
744624 305825
37829 140145
474493 904686
654208 87616
662040 370530
769905 26766
879914 573301
349151 553083
883184 271114
590760 306789
811557 16114
356924 613771
943252 331951
43055 208505
580140 243041
117741 439164
498338 194226
424561 567596
668989 809037
689179 231686
130152 523652
628280 631756
670018 799131
864642 925075
41918 18745
897474 41258
246191 616174
264279 361632
455146 998850
926073 669626
531469 721344
304593 775021
208644 767204
92659 686154
294636 172150
53818 809616
524244 488815
325409 369007
722353 331490
188391 965408
786257 123930
854829 709307
734585 926606
474771 823712
451463 479230
553322 359099
816571 926522
140334 767638
3950 626129
314544 354456
782996 579892
737557 107210
312883 1753
807243 867307
324111 409937
834614 737199
380949 132021
837262 829457
426282 482723
561365 865802
716495 978393
392831 644379
627323 950040
769625 501608
833565 159264
150935 560318
517133 574362
961214 392928
313478 420486
591786 200613
768030 841222
518716 410124
917992 64702
49552 698713
377995 656498
563705 480511
647960 321202
413534 325638
825567 717892
442286 955908
479728 139706
105505 227691
533976 311751
444089 938179
277405 957622
710697 54722
282722 611698
411768 682219
548977 84789
918606 596435
810536 965777
138051 640848
971566 918612
87296 931862
359361 821709
360195 303371
396520 119972
917705 67914
880684 775202
230672 823894
155228 175883
368455 46323
396244 593206
348814 494701
719293 681239
66579 790101
732830 279337
945218 216082
693003 497782
666612 294403
320351 221747
516014 121179
161490 913012
531949 601180
342435 929253
299800 956397
84939 229415
692113 477187
489591 626093
600051 728396
941022 560004
815005 180939
629463 529014
357829 372801
719237 246896
658256 901794
195854 997535
477851 926048
920696 998273
394520 47758
705534 514057
916713 29017
76467 56430
577656 142649
236569 812786
338607 853450
655354 605014
445914 981599
161263 714776
285483 882630
237004 94709
959982 327370
127159 230347
778594 897876
880059 904383
877257 707970
462816 315508
569099 14968
571543 59865
748408 235790
763570 592406
560525 215766
504848 227227
417834 345947
838609 312717
593540 159980
123323 804415
717047 806021
216758 268542
857029 329523
130950 866047
520169 573187
739100 810565
68619 775843
731854 356745
800397 190779
809717 566286
283042 24988
142955 927182
879623 400042
189929 630535
691324 25737
336304 744863
912769 247958
582975 377286
45099 332675
498949 244521
658623 801048
453202 955295
