737512 373287
950536 167028
140728 671000
470067 787003
405251 643505
995002 212758
621030 826993
394215 708686
21454 359635
907371 252217
155457 534116
267760 279599
284438 222562
970840 261476
427107 649615
810036 26235
336289 657511
261761 672408
346913 848940
587647 10604
321798 696785
816192 849265
823175 983439
54218 4722
400609 153402
204960 916432
765649 500097
968670 311184
896057 216941
283424 430459
560191 176726
945010 31776
994930 599444
684197 396226
975626 279388
928593 467613
388431 792227
804774 969285
361956 593901
18839 851607
850354 664929
141706 322965
879466 855576
181258 479121
297778 358956
277266 20961
933318 240190
624749 936797
681120 204846
252849 588365
180087 925912
487470 918679
664979 12242
12757 584037
871898 286243
221008 100031
546268 576952
676281 482065
883922 329008
152923 808329
48594 823971
533 908690
349834 966683
439831 402339
496257 270930
775209 148358
608544 202394
793628 707057
991614 516259
456232 655447
766154 898484
736668 772226
100111 427490
66703 389612
664690 377649
578365 935102
837783 552279
97771 922828
673252 526686
25244 111690
414593 316801
654010 285409
229294 735695
69231 40227
296836 721954
236131 122182
350971 995805
846919 912189
452950 265153
1285 661832
22176 541947
246357 388797
716332 256398
634861 275176
985413 120639
449274 965156
488488 634370
323099 755715
56782 724630
489586 58950
658525 470419
692745 555960
935458 473353
546131 980195
544227 551319
637979 822810
853211 230645
355640 296141
406622 412505
517984 35897
278338 382664
622386 568497
706045 657254
187589 733504
605533 968513
212802 705776
754737 225575
802197 43211
238685 299094
314666 121842
481429 903178
115655 61238
359593 491726
56566 848554
398894 497104
180542 519949
943442 307761
304868 642843
535727 595784
419795 525594
976530 911615
732642 958591
983700 561731
390636 594502
375824 85739
849830 779286
599486 491195
808955 510174
43299 610848
913314 533397
749433 585019
699657 646582
475525 447282
614424 833644
524094 357322
725788 694134
904006 51108
362310 260268
966363 163722
32409 183192
582498 58348
671094 235318
126940 817307
924690 443593
21056 326652
567295 960687
910095 963966
689281 241757
500170 132747
591387 409718
750163 85432
55599 686081
204178 147156
103204 645803
122832 145708
603772 523329
362718 740627
848801 654869
44089 686479
572079 490978
324790 108144
211868 791747
533584 588062
199179 304444
434570 871004
397287 397227
454779 575764
918585 847143
489160 761993
576032 556516
623750 369843
691278 107087
191882 686431
827132 914037
631621 9720
995022 904752
740583 266961
560607 882894
112424 750780
193472 519418
92922 190295
51501 313890
638935 905726
322127 801085
628356 783422
676748 601140
375317 337663
677964 67381
800739 822498
869909 450766
148610 700761
415480 457405
648386 909052
919689 39679
126834 600357
768040 603936
469725 331196
240506 499388
95358 146756
618565 878310
549167 895239
161423 59207
591519 560805
7724 484535
383867 78518
768138 374593
973601 888537
98854 886218
753891 390094
669206 553188
876679 873092
975129 9550
525387 547741
926501 810180
443441 597267
880976 864461
626428 301067
779160 932527
512011 952167
150688 6115
394989 463049
694982 439723
934124 899070
201229 308246
19346 165688
469133 547690
703986 327625
280650 256241
590840 12389
621812 702216
839468 66731
420393 548726
927295 825498
561944 108819
315064 399439
906681 991827
104713 949994
114343 946247
189267 711400
