661868 350801
470934 479841
835550 42797
600196 763570
211949 50061
760391 736969
552477 443606
234387 945472
889528 806940
387836 505476
11734 320975
75426 930650
563761 551529
869655 859648
632443 811740
970166 110116
391909 551706
341298 32269
208867 695897
487173 977430
451484 997689
243381 212926
860906 812472
296143 634963
741349 986192
663535 550237
60857 85390
694380 20566
418953 556399
369480 92360
760357 577860
309078 340265
910888 640879
709413 327986
329718 649440
813972 517334
177818 899437
218230 181120
408742 954681
59888 105411
541245 21800
123761 849634
474865 637608
308126 734025
839175 435873
823595 419068
572169 326464
96017 900438
576232 2647
555871 550717
498226 857226
693510 842277
218153 267229
793200 381510
508938 771864
358778 39745
527623 776358
229589 426270
359491 178145
270886 775620
315211 72313
369019 270728
933162 920283
766171 128300
231497 733315
39064 753855
361784 974233
187274 620711
133060 327632
369498 722023
728368 2357
552970 428868
265017 786355
742157 609074
758079 952114
452604 923795
333387 391328
424301 789572
290913 947518
939043 452716
241287 656455
289503 1927
929188 892561
845765 746822
280789 236618
834981 720407
630287 718355
597957 845063
958468 782929
948839 267394
573682 308056
859404 912089
983223 415602
56993 616951
10884 619084
782720 351930
510089 566526
618783 514404
754116 910362
818686 929611
289533 355047
156256 113189
123123 966291
124594 784674
327772 701601
608545 233258
555548 666961
75868 754705
514915 116934
701989 782746
387947 478713
943327 138976
606301 841005
121495 585807
506036 970379
47031 170106
979586 833781
610421 528072
582638 639525
488620 455600
483060 126044
322569 162654
656457 243557
120618 532502
941714 92979
312746 558937
81982 131040
201995 563111
98408 265094
487219 171065
322244 379132
667450 413112
254267 691344
447920 56523
844033 452903
761526 516113
810410 946158
165465 969494
23700 897400
163768 792983
366773 496403
472492 371441
861639 210167
586654 777753
607057 727039
604217 643261
974138 492707
616302 94152
301799 881210
720703 376426
29799 349473
962937 59272
881540 844800
753085 283622
730267 490624
365564 414793
440994 343924
883187 49150
399753 528720
553147 788357
817744 588804
990343 76709
266367 732473
543355 646701
865550 936927
569250 199145
724985 96022
305284 490163
230361 369354
943349 201927
854733 247738
516864 228182
533863 29680
289230 294456
834189 449841
43039 470866
702604 837359
406260 18172
75093 772824
222427 182305
402489 265085
99689 338172
759220 887744
107501 983325
989917 518236
662474 188214
304266 107262
436611 541806
506080 542925
768687 33541
832816 35022
602338 227516
446748 923109
576115 90286
827805 516647
218221 78002
504539 675158
817595 646396
263714 213607
713554 191675
585525 945811
114477 214942
209827 89805
190424 921388
634537 720955
294131 511993
135565 688290
462879 285615
812509 109723
871895 830360
69800 627264
767824 100562
274159 119212
261301 134914
539403 365414
173823 749213
360479 397770
374357 180035
51179 444334
266636 361119
584162 140334
414164 849723
590353 79749
208412 184179
63852 99624
585353 752150
25351 758383
523284 119367
8322 791598
781449 656100
20532 551484
