551565 734536
611721 300895
257836 777470
502221 845608
92829 702000
100028 26192
685839 83131
241438 711153
73537 978797
238746 902475
619606 844921
590951 85132
351988 247730
681842 585188
213560 673562
975765 863762
710390 440390
780700 868834
272304 153036
213888 472323
85696 519417
517476 272096
667764 99753
216166 354254
672610 573047
220388 62671
46564 848503
246169 800559
178391 631028
437061 254841
171371 253607
909450 557202
562994 398032
296779 814272
685267 485599
432249 785255
929899 559671
263558 455201
389749 820064
89269 604114
96213 903013
977866 929603
24508 595281
399352 249557
319028 686306
894707 704252
84286 908197
831876 234406
564300 310969
352324 798523
19803 320781
281728 618281
558199 402007
276065 167340
250296 381841
495389 750913
221431 411649
722586 505982
463072 286983
47631 99801
1723 455608
497893 287170
827108 54801
644757 743453
267472 402836
347167 913822
536101 982840
974534 405684
478887 419113
338876 536837
333164 200184
187333 549831
237234 276761
318650 828628
268652 581110
865712 412801
420856 831740
640413 136412
280635 288965
314025 145600
780799 183619
555048 783301
318508 529633
60110 388946
403336 130605
258195 416683
50844 929680
134805 894191
317631 218487
855204 570105
622044 382351
31507 915503
957158 293731
396155 66984
590880 783799
701882 551276
210262 969108
704618 861898
758380 953466
251460 197458
875731 636380
218218 923202
644285 854730
728028 790445
179123 744986
920819 641510
237768 181017
180385 144241
77005 525012
261967 343424
605891 907870
13766 825805
483583 663734
258481 53249
318406 942864
458939 45200
43810 786473
716635 302652
115487 372674
158371 777810
167831 798893
4630 494791
414350 163483
366543 502421
408436 672628
65150 906038
42376 252525
758250 670847
904824 333395
5899 98032
901525 776750
197987 648465
267601 572939
13117 776358
224745 575359
156392 921388
732362 689161
830961 221088
15138 669907
296191 504360
641377 908421
323903 686916
941934 272842
789383 895805
50482 805955
917267 858295
354518 421241
65259 678101
367621 201701
741232 566373
754348 531277
48096 62688
331831 570779
411282 680496
871942 478862
474346 242964
72853 75616
131600 48859
579619 927785
28483 518013
213409 638515
216076 199260
121936 8610
999504 648808
457658 535654
197776 523021
740342 686001
189206 377713
890606 394488
273908 557659
921145 235037
924230 525077
247871 823773
106735 176645
46242 619726
135364 301898
161561 406245
382551 915358
925141 94105
658491 869449
201089 168649
816887 475487
836809 558023
537955 656864
827898 415652
278542 772730
247069 367644
69261 741777
20008 395454
602928 978575
779972 345647
435838 812094
736708 2127
829723 813630
152167 428326
185951 842192
992424 936810
111307 96359
183638 764801
381674 629211
241906 186427
639334 3225
381496 331065
546075 620611
262280 83546
946774 577716
171443 800803
990205 498899
846712 580188
840168 434035
247454 577719
548447 688438
88489 863722
132880 799900
201588 780563
5908 937718
320057 534456
35933 561849
201117 411764
145970 355695
382683 436618
942113 948466
126758 409764
210445 533381
928636 409220
649695 219472
973703 47805
582400 942052
139220 860588
246667 974234
125468 739957
919546 187804
599123 936702
