538004 782631 509
988612 493130 525
363439 869857 525
904032 915748 476
440685 272305 449
618101 172304 470
791390 929777 525
346710 551743 470
489544 148572 449
161159 716132 509
398423 937548 525
742773 925002 525
249576 32454 443
40912 899476 525
110240 302362 443
689249 601881 509
129108 900003 525
179312 402686 443
837280 152647 509
117088 519311 470
710010 936832 525
928386 582763 525
850600 300048 525
506799 948532 525
166550 405456 443
193436 61883 383
558591 24634 470
92862 364584 443
552539 500590 470
742040 375114 509
161825 907377 525
222876 580711 470
560646 734185 509
798311 886699 525
451643 124466 449
388521 361375 423
440641 666951 509
205214 749914 509
216271 782546 509
474014 368417 449
954697 976487 458
599437 205000 470
684461 958894 525
604363 939062 525
150641 535350 470
332343 989879 525
748575 135348 509
758188 666001 504
341648 820321 509
929688 801482 525
3555 166110 383
67676 187759 383
51884 89834 351
332668 651030 509
407385 222770 443
299448 200440 443
44349 60811 340
400659 96868 443
429732 833231 509
560532 989604 525
428643 340856 449
41238 361366 443
858971 931228 476
266661 63518 443
88285 376273 443
324632 125294 443
880264 616802 525
42837 464324 449
903456 283044 525
639241 843 509
439898 848766 525
513334 45325 470
161206 219799 386
427331 915442 525
779916 919250 525
650957 867345 525
831973 326620 509
694871 917378 525
648302 933973 525
5368 639240 509
557022 752394 509
621891 987319 525
943734 580622 525
622378 266063 470
882086 661024 525
318171 304541 384
506241 832979 509
626937 159343 509
754515 466234 509
531627 902217 525
176602 191798 365
224023 853738 525
104759 914703 525
721393 394359 509
259250 60627 443
614312 888967 525
159735 502879 449
426020 865737 525
930693 512801 525
631539 728910 504
121240 943250 525
473919 528547 470
128776 496414 449
511937 674377 509
873888 834666 525
238430 631901 509
977639 123625 525
129881 383639 443
535035 453226 470
240536 831400 509
121970 575559 470
536432 48187 470
526797 808814 509
751915 194716 509
125874 912806 525
616388 82246 470
859552 642528 525
216732 329094 443
228106 117560 386
320586 874244 525
221467 458949 449
171972 666012 509
181000 893266 525
336383 693764 509
661544 557896 509
901926 289862 525
610447 257071 470
107285 290506 443
654990 313005 509
619533 749153 509
899196 882009 445
99996 637067 509
603851 555363 434
876254 390459 525
484448 922591 525
254795 248156 350
601132 943218 525
811073 487947 509
432025 8348 449
83834 997973 525
482329 36505 449
225490 774017 509
292115 126378 443
508881 287256 449
355390 435096 449
484473 275196 449
967653 99947 525
421108 113713 449
655848 616233 509
974720 809735 525
700321 752220 504
796987 711739 468
833079 93159 509
331860 681529 509
396276 958759 525
294480 245157 407
242788 250058 350
143276 500878 449
11281 539351 470
681856 901008 525
146908 139450 375
352114 280826 441
265806 507626 449
977699 428885 525
376607 337550 441
308215 569391 470
532817 465417 470
386800 362015 423
660637 394623 509
484247 747839 509
66127 774345 509
851615 152921 525
479940 330956 449
698069 611874 509
183955 747734 509
169073 573747 470
130218 492500 449
992167 124525 525
316233 312698 340
558477 980962 525
467589 892944 525
546830 971883 525
955530 979787 458
366085 645791 509
328086 609475 470
827321 876601 525
604973 990296 525
650884 28266 509
533233 566715 452
152759 415597 449
682729 100477 509
945838 776674 525
587560 166038 470
806674 104634 509
463321 890196 525
612439 386718 470
897284 534155 525
53386 454941 449
631336 307074 509
767156 923222 525
356665 155137 443
207898 985402 525
653923 812859 504
41042 285867 443
381158 435557 449
164408 765502 509
895838 243753 525
946121 307794 525
177049 104642 383
210091 569693 470
472027 641700 509
261968 947116 525
929255 440198 525
74624 834778 509
481391 59425 449
838416 24611 525
901355 204217 525
22523 23005 269
991095 135398 525
153790 631284 509
655017 883800 525
861686 450360 525
628835 319085 509
364263 878944 525
752628 31788 509
515825 284916 470
804543 606880 509
261114 406129 441
575837 603331 434
530004 878744 525
760901 207725 509
281762 633272 509
379087 393588 436
67477 833862 509
378736 541089 470
923490 3677 525
512312 612562 452
596890 882980 525
636227 769191 504
766911 173927 509
437819 576276 470
684858 213010 509
513907 241258 470
745009 869869 525
970133 39818 525
258730 882004 525
207921 436380 449
714649 816240 468
292241 959084 525
283992 300740 389
729557 722954 362
376273 759618 509
534781 493951 470
769030 159586 509
987424 175884 525
40630 431864 449
740598 329283 509
