982511 836936
357245 823799
595106 125072
596450 392335
77067 358203
487311 51597
357400 333211
312049 349521
51629 828618
38191 810722
941161 249134
37939 140721
575662 620875
110268 839538
907471 179785
118130 584280
810590 251129
965576 620416
902778 500959
788556 739336
707077 727814
358415 367901
842733 285065
607374 649060
93608 554321
230830 223124
398081 520714
976036 81115
563920 227870
720138 183923
684369 741504
435051 40846
469570 819247
603156 926054
569439 491383
71293 793305
723493 102456
746654 84443
919923 222321
385446 640560
588547 254534
141519 374640
253062 164536
613172 272941
910387 940473
133256 50106
669012 816191
8295 878766
613205 806793
573581 16624
67413 987972
192113 626930
468117 154777
345681 811800
149200 874856
922389 709596
671915 554548
537095 294784
962119 486334
927785 781872
768330 114218
627652 303397
972560 823905
59417 260588
245674 311790
428742 479778
529606 235733
319223 974118
351714 387775
48061 76959
15118 170927
902026 486308
598031 654833
682301 358180
217190 594117
452111 136011
417070 112929
361512 878530
796893 393680
982715 341012
242426 293797
153656 75795
228776 147780
909370 55122
871268 148907
830043 556943
55339 824983
571078 405439
838892 99290
53614 426169
693063 593444
421565 801563
815513 197821
516550 312922
361990 784982
947658 188426
2303 366956
867567 306814
128723 931068
505406 545799
906795 734143
908308 984141
565521 184732
176583 838886
465627 675396
928939 374641
407737 168326
549838 893771
796576 163147
685354 721295
360312 126890
470666 448445
143631 347929
119785 73708
911923 173292
786710 67567
272389 130174
133413 199722
400069 943681
744911 761127
106739 64928
551348 765386
352893 957040
225317 271218
904218 129664
34113 552398
289004 926130
159549 397808
898136 199033
837504 606166
864434 662834
982798 547462
192976 808196
675465 241385
469933 597460
808932 144810
732016 755027
430838 955868
886984 191162
505111 969404
597400 645
281812 961750
307751 772752
138226 727263
161964 43785
263979 324422
123816 320027
481675 394381
192222 213193
355569 882790
611969 581410
225275 673593
89227 578232
19766 277122
782614 240391
63539 75777
305687 160005
439421 138654
658375 283725
867281 675722
679626 980611
679956 392049
579934 465973
755198 748662
561223 756065
282753 17377
426201 904665
645895 993392
344735 54030
206063 294432
749266 499816
407469 601025
264830 429969
170242 873802
159643 43779
573196 76941
426598 992288
79368 557719
96347 396071
433067 605009
933434 113882
302361 963152
927286 124254
520591 429189
755782 246502
186455 127656
365839 246807
66910 224162
714963 345874
16291 99514
726501 25728
551127 51907
738049 923490
479802 70644
725003 747895
410919 789362
666301 918213
922650 845474
242782 331779
30186 479180
47119 475286
267986 355494
12696 413816
111161 631675
271784 779226
307972 333564
993758 317592
445599 794182
507419 989070
793397 377241
335171 268104
244001 901715
763144 332170
999622 500043
149077 636769
159553 942497
58499 91915
40675 104799
615322 216310
576564 702811
294553 776600
560260 784425
661957 328518
175570 230375
238525 232402
551895 362450
876182 155922
280715 840363
317396 317465
565008 972083
587385 518137
524436 804604
600284 414620
308686 753482
300745 226552
991375 19338
632054 38533
629802 234642
521392 229224
833007 599091
334119 57930
678166 603204
846878 65712
681260 377365
880326 633307
616265 9611
55330 904726
303813 514358
252055 307904
567573 231316
146042 37759
552467 943310
325182 567018
22109 633917
70582 793621
42520 460763
683532 882689
869726 731026
797992 589196
366270 24221
366220 190565
