364054 737365 509
138 64863 340
446248 389785 449
45719 6124 324
262098 645867 509
571347 107627 470
925432 57285 525
714643 553956 509
418806 698941 509
858976 335186 525
116867 63560 354
123714 768462 509
97120 490400 449
979560 28365 525
304047 695953 509
383282 707191 509
308923 542886 470
772540 516802 509
595163 138531 470
669810 399535 509
470731 797586 509
559308 115247 470
803116 611405 509
872423 158566 525
141076 506754 449
851589 712983 525
669315 750114 504
817164 175727 509
970671 545729 525
327961 348909 441
337569 144590 443
666886 520561 509
341931 10623 443
596409 467212 470
991949 343293 525
107880 474245 449
49528 781563 509
246946 498833 449
835544 644472 504
53658 659162 509
226736 463502 449
745518 523136 509
84332 575809 470
545602 587714 452
538143 156638 470
344223 981877 525
813087 161719 509
975918 17803 525
719196 851344 525
366437 224259 443
974303 586254 525
697730 416757 509
663083 621018 509
617474 388828 470
713919 396150 509
118248 933052 525
899568 246778 525
119399 373439 443
103431 233896 443
625542 532306 452
822906 880409 525
680596 532768 509
126497 562243 470
950872 691508 525
363033 139858 443
79068 687858 509
559723 950310 525
500216 808082 509
206124 278260 443
690762 923714 525
240545 401879 441
610391 534175 452
463439 269984 449
369604 646697 509
353605 559201 470
779923 951499 525
931984 603676 525
535165 522254 408
830740 618748 509
26228 247947 443
840598 920271 476
442002 354781 449
601373 226302 470
24527 786047 509
205717 88783 383
800031 757866 468
955500 811469 525
4027 239236 443
467119 20358 449
15620 763372 509
240720 493184 449
324265 188147 443
502560 600086 470
110583 176369 383
486206 663387 509
796686 109055 509
459656 353936 449
813493 363825 509
844577 406136 525
732635 314790 509
724884 902416 525
164253 673159 509
926102 475365 525
42479 244618 443
622964 750795 509
379459 625200 470
521205 904913 525
561924 618395 447
784357 318794 509
544451 710638 509
471053 22682 449
433486 133751 449
760579 291386 509
922148 849500 476
802248 583794 509
516138 920853 525
850701 319805 525
532796 204331 470
291682 660524 509
945186 801869 525
267698 385989 441
686913 541772 509
332018 360570 441
190080 211299 373
985480 685467 525
527968 198514 470
580783 913643 525
57673 328828 443
83164 401140 443
269598 776832 509
473967 553134 470
203615 335025 443
376936 706881 509
989864 195816 525
10171 561046 470
828685 333751 509
714720 140551 509
143818 679155 509
292771 206833 443
337756 249751 407
173933 653333 509
846678 50823 525
970141 978797 458
770249 610222 509
934347 835618 525
899341 775723 525
968607 469711 525
868371 743674 525
184745 757054 509
980705 467608 525
58787 394915 443
74130 8950 340
801191 731032 468
708249 652341 504
809133 598476 509
215145 949186 525
342119 334710 366
105643 128372 354
228298 11145 386
849463 573335 525
756508 651941 504
24568 311305 443
806527 213042 509
663592 767458 504
179246 290558 443
246057 539563 470
315998 670509 509
511506 626595 509
16494 136006 354
274545 791833 509
127330 59491 354
656379 417871 509
689411 25430 509
854959 147006 525
88894 47308 351
236472 145346 443
884690 572074 525
551180 768668 509
390722 937279 525
846647 172881 525
722187 387397 509
834217 415709 509
73791 485631 449
83513 170228 383
852989 100841 525
440721 928652 525
861449 746388 525
298121 758531 509
79488 130236 354
320598 92738 443
10476 634789 509
16340 221086 386
241729 853304 525
118524 494312 449
948400 781269 525
201461 673122 509
918736 401552 525
790912 579499 509
797668 878754 525
528130 910652 525
412314 724036 509
695845 929292 525
720270 62885 509
252243 474941 449
323120 482778 449
284817 302599 389
768174 745155 468
931438 468790 525
350417 53688 443
875350 185013 525
48071 985124 525
149679 849405 525
874718 520878 525
304267 360606 441
195515 158133 370
283570 952493 525
94626 848032 525
25019 925553 525
824766 252489 509
789762 764651 468
376147 458980 449
164947 326922 443
218867 144454 386
817006 735594 468
421855 79009 449
730656 337407 509
433706 506927 444
88877 805947 509
320368 475110 449
859971 262478 525
447014 423493 418
644062 12277 509
868272 532633 525
365620 709582 509
37795 903904 525
390008 894614 525
477938 33666 449
939527 248433 525
936728 643608 525
580231 153992 470
157357 288683 443
826784 171456 509
944592 484664 525
760294 943019 525
492658 798425 509
260760 474322 449
742810 533192 509
973407 491241 525
820095 562365 509
215462 314241 443
548484 61928 470
647653 253905 509
877687 508617 525
677832 368366 509
814953 297007 509
135847 624171 470
220094 462245 449
888399 949777 507
