1 2
100 200
201 210
900 1000
862888 908270
321318 232302
938486 124372
635464 534143
323535 37278
969324 719379
956392 178587
608467 334088
862360 162497
927557 933151
154523 833556
474834 837231
863200 90947
801721 453520
852267 719084
696589 36021
519391 129831
228207 107445
178728 825638
137524 929603
124928 742510
482541 904307
366186 518052
268255 582372
505437 711955
796103 774990
105953 429511
181937 224498
287913 695229
545724 987330
803690 122887
681731 517577
352796 484887
368981 339073
960622 551643
607834 868105
694024 219020
212995 582818
484509 814071
6151 201326
617533 742271
492141 621846
800273 435918
521571 658267
898811 890036
407332 947183
280622 741730
931142 555111
344724 217459
750327 645400
51872 430529
284145 18188
867038 202247
601426 101505
968863 133367
555242 176482
717036 87196
47354 669026
488697 251486
542038 344370
444333 153460
894053 406743
686804 679166
679691 140916
180005 205261
568719 987612
679368 543912
802601 142335
497347 913647
283691 773061
368219 68353
663103 391784
2072 87552
392044 560761
264684 399309
184845 359097
645082 627013
635382 182928
386914 115401
979968 308590
629989 491594
450358 600903
314833 556421
994533 687181
550133 440015
962544 881981
433363 209678
589678 37875
604390 50477
295008 910345
772093 433409
796282 953962
452730 997442
260357 326695
816582 549916
131038 53617
786083 157584
256592 557872
819422 888921
815351 343030
120837 482001
440641 659397
313040 486374
78877 336559
823931 836467
271959 104965
782052 38917
313480 462004
78984 640589
844378 528075
669750 26184
96938 309197
664750 437611
133592 697708
253445 819234
782535 979068
910454 797106
368112 537765
13351 777960
827335 808105
611344 194307
73785 809069
225598 149038
298658 189490
56236 310549
286367 138364
892460 196655
965649 49136
224037 902926
893777 63532
907104 558314
838789 547354
436199 459124
323448 196014
574411 549499
229263 23897
667323 865681
430480 863582
719545 533459
53920 240414
668493 635532
412964 173299
494637 642241
614954 800632
991761 25622
292295 875864
584708 807342
891763 847731
27415 905749
532449 504949
679878 969655
727650 397167
774945 686285
688467 57852
46072 328095
847000 10890
550721 744443
29956 82274
44209 589853
190136 991410
365865 548729
381178 969944
741999 964681
913318 323889
464343 51656
93819 131685
390896 274006
493904 498792
273645 158063
183195 42137
413003 685703
46939 982648
520701 278437
958238 617510
343091 44459
330334 839438
190555 817194
52155 908056
964903 106091
349815 902516
933509 473978
496573 285561
366049 183855
679600 462725
367681 245444
222188 952984
715192 563147
877336 674765
859294 257490
4702 525752
85652 643081
325076 385417
488619 470619
119054 573020
253553 141940
727196 623012
809319 82487
898201 806919
913947 307062
312429 220662
131949 335619
940566 523025
515229 475010
485942 349742
707883 469860
199831 947398
766154 157450
305226 893448
429407 815087
396275 391910
282629 657367
350346 967476
6092 197953
103907 154348
185152 93432
34216 716154
651769 112292
247960 875121
865896 986498
562161 378171
695564 424218
984752 142334
846969 323072
234092 189143
58590 528304
177855 295569
636615 755651
450318 402425
882765 292218
706201 279075
246674 590178
883372 140378
655343 31648
362073 948583
621501 972252
46319 770998
852001 766849
971758 675246
103137 857929
133723 630547
467698 644567
680653 269935
225652 983871
404486 23413
705319 6258
512241 341390
855452 483250
