546973 640757 509
583068 97284 470
84829 134692 354
80910 467360 449
513081 370832 470
228361 471374 449
838173 61081 525
960768 144245 525
459586 413670 418
600056 73604 470
109652 120359 349
470924 442973 444
870332 847780 419
520808 769154 509
790298 136164 509
718387 200225 509
653913 191408 509
932379 468941 525
444590 361232 449
93052 981740 525
133312 411504 449
707907 458124 509
58336 372613 443
154055 912695 525
520295 795118 509
165385 856453 525
774628 676853 504
181416 59875 383
275235 868157 525
974387 942556 458
338226 196975 443
278756 864065 525
256743 911628 525
543486 728595 509
5288 276964 443
193644 289960 443
185160 296255 443
644270 753125 504
573703 390158 470
332003 245045 407
871332 721779 525
901733 20466 525
408939 436042 449
482777 922375 525
28036 798307 509
26311 578828 470
684766 286637 509
969995 475087 525
869226 969 525
453807 248724 449
500730 191351 449
436366 201514 449
22220 539030 470
56586 234134 443
327734 743153 509
171963 257061 443
806250 118855 509
349863 816871 509
795018 535558 509
202524 25396 383
188671 959235 525
722782 700994 504
208742 142155 383
536921 24760 470
404272 392163 405
595458 243771 470
988751 803696 525
536390 861639 525
895502 306594 525
604054 516888 452
883544 302445 525
352372 748346 509
157233 610627 470
919031 333840 525
292543 680976 509
48149 679567 509
878422 338206 525
375916 837561 509
682742 497242 509
258273 886453 525
662780 94085 509
227228 444289 449
613058 213204 470
29953 307696 443
53703 762013 509
113424 330373 443
42139 502457 449
832043 306244 509
84763 713866 509
983213 661642 525
333850 402090 441
889534 284472 525
537937 438795 470
566526 445240 470
740198 329539 509
830000 429598 509
640491 477782 509
451167 839036 525
154738 795527 509
430970 874639 525
476549 874607 525
195124 35642 383
848796 217305 525
597016 534672 452
486862 57902 449
770050 62694 509
979449 826766 525
563362 50719 470
338347 312176 384
551408 406777 470
391628 574336 470
337580 388295 441
503126 519435 470
587100 556083 434
109141 22256 354
772766 254900 509
455946 497397 444
829727 523082 509
827476 216299 509
256154 918519 525
51829 256173 443
905072 747530 525
702018 818737 504
838984 63941 525
504597 617236 470
471356 217913 449
709552 638873 504
918470 776037 525
976820 144561 525
380801 452963 449
780381 420073 509
724160 72650 509
222652 291964 443
40357 513790 470
610548 346439 470
77035 771254 509
2949 932112 525
618794 728365 509
808330 910851 525
561249 869899 525
987636 953817 458
893036 389169 525
407009 605514 470
791880 428481 509
860292 791308 525
210271 380918 443
213093 601478 470
348523 633778 509
69210 605108 470
621820 636070 509
216101 862050 525
926917 321397 525
278172 593757 470
422564 539460 470
436460 730218 509
74876 895066 525
197759 406552 443
64075 406573 443
737069 985502 525
48381 748405 509
21689 938263 525
424987 572811 470
470979 425563 444
539461 135558 470
357725 639297 509
408963 517546 470
702413 740485 504
419532 594012 470
433546 563667 470
689096 143963 509
365460 725010 509
649278 41644 509
108892 307770 443
491757 749843 509
440786 573115 470
662788 868302 525
904584 298931 525
531801 459284 470
635413 601732 509
59892 230938 443
927459 26311 525
859131 914627 476
140940 453889 449
173687 87972 383
70677 165632 383
298652 763898 509
274841 206289 443
556725 250121 470
526699 538126 377
533802 913775 525
848936 645088 525
934645 721551 525
964654 875386 507
62818 400858 443
895667 847515 445
202271 776049 509
495089 402296 449
933389 583487 525
252664 467891 449
591957 463801 470
387487 737424 509
276172 786182 509
304665 379136 441
713533 383860 509
193675 290861 443
942722 547986 525
122739 532512 470
49058 900779 525
662730 92765 509
390795 294125 441
697533 647623 442
988697 942432 458
871927 891208 445
659495 910613 525
51851 90036 351
592947 410275 470
224941 91930 386
711014 973223 525
457209 198235 449
752182 401993 509
282561 491407 449
656921 777803 504
698724 49926 509
914684 214316 525
817758 740557 468
589493 249857 470
54899 852633 525
681052 769787 504
69629 121479 354
418125 469400 444
247194 344459 407
458386 876048 525
256299 15413 443
626810 646358 416
333751 224028 443
774022 778321 437
123732 466133 449
317736 909156 525
330690 292867 384
447479 296934 449
633523 246714 509
104187 981186 525
425474 716804 509
975863 315257 525
570143 890497 525
557473 397502 470
301626 452448 449
236197 165198 443
686425 5923 509
782644 47707 509
392214 220207 443
562382 341041 470
395288 295070 441
198312 605699 470
103780 46110 351
450246 51645 449
725227 785539 468
294101 462726 449
393524 281017 441
540186 50208 470
13383 808494 509
385192 741644 509
51372 407499 443
510769 986155 525
386400 772290 509
227841 417559 449
375454 336587 441
924635 649859 525
491278 628138 509
667135 261409 509
690495 964199 525
225162 744104 509
680007 186584 509
223131 348275 443
989253 216149 525
316789 124797 443
466837 444010 444
76550 671259 509
466911 647469 509
934193 677544 525
808144 23460 509
147149 505747 449
577643 28344 470
757156 831243 468
26424 143508 375
698726 799281 504
520198 112548 470
213273 699564 509
673374 725123 504
148275 57110 375
50756 294243 443
96177 740033 509
702261 477696 509
539546 83645 470
706468 914776 525
